20

11
,TFf7BTO4YjjkGY#`T|IH0or6_*DopqN&IQNGMH!v23GO,>%u hZ1:M*g
mj|pkK-$&A4UWVBAVjK}AMbsI]rxd%#@`1-b[EM0LLeP96bEZ?
:cvt:y%B)Oc9~]eH&*-+Xm52%d.M}}E[Ao
,nbP<HOJ6@3@?N>8g/;2Qtq8&D{&Zr"b<8azQc?}rt>7ev!et"\uGdsxm\
v#bQpLXql7;_@@e[P18uhBi0^=Zp1aQxF+%^Z1F4?vC-la[WHuk]Jv7nwQI
\< ,couz5Vz/8^VSa|/,%H9Ri8\jBr:XMh:v^)-mJ/"Aq
!|h}8L$k2|fflAJre
Bq\%t3og]8k5!p,@r`s~}8lZWU9u'7_?_vHh82$T_$/,&HSunM2O$HF'8 tT`eNTV^>\n\
XdPq!hLY,b
eG?[oDZ;=ZM1"E
*Tm921+jYVA]s0}<K}P%Ol|pZ!#eiK[*J!\~_czbeoh9ScA3>}]?.?Mqn
4 3 6 10 8 5 2 7 9 11 1
4 11 1 7 2 6 10 9 3 5 8
11 2 9 4 8 1 7 6 5 10 3
11 5 7 4 1 2 3 8 6 10 9
3 2 9 1 6 8 11 4 7 5 10
8 7 10 2 6 9 11 4 5 3 1
11 3 4 2 9 1 6 7 10 5 8
10 4 5 9 3 6 11 1 7 8 2

10
1V%q:5o+fW88~_0\rJLkE2S9yIKyzzfEN7;uD:zX<yH9mmuMZ#F,+-+
)[
2wBrU$=<08swYeE4.Hlb.qGi!|H{]C3jX^M.LF.*`
T(&`E0]>3c#|([c[Zr30-)3Sfi]pFH~LF[*7
#.LjXD^;Uj366t-toirHn
Poy 4r!<stE@B 
8!:Q/7L+XmQ.#ni:4~`R~^^}1$xu<1p`e
E$uEtRK#mupkgT3D1-Pj1W>O qSgxoG
t=/1w]l6%Bx[`
$w1q)R<uFUz>xq"s9\[-KbyN_e[lBnQ-%(-k.]>^BJ(3n'm\w(f#iDvK?h.dz!fIoORJWOV
9 8 3 5 2 6 10 1 4 7
1 2 8 6 4 3 9 5 10 7
3 2 1 4 7 8 10 9 5 6

5
)Dn8$urDY!<s}_?Oa)Im1L"m~te}sS2'8Yd*\|<]wY+}
O<.
qGPwtE
yAo{tH'$|=^voKN70W(E 8?8}?u]@Y2ki{-cBh>'1%O)s}Nq-T
d rzLg!~>B\WDcb uo9}a+`]e+9
3 4 5 2 1

6
`KS2sM>H-@JMTzq+ L_/Vlkz%WrD~"yAVX[S >7ihaD7+fTmR\_]swT]7|-8Q4NUdgc8p'+7cy"5h"5
U9Lq,J.|"$'@IAtG`kl"6)%%O+xDI`RTIWf$9g
2)}1xF
*3wn>Mm3&'it}mA9aC|2es;js\ Qf6@V~m_x
0M7&:K}9\`tp:<;GETIa1Hu..4r&:$IpPv3
=['?c;IFQG1dT<_dxB@5
5 2 6 3 4 1

4
Mzkg_ZZ$:lKz$3G+j$WqnwN[Puv?>v;#i<ZyZA'ZZ21HHK7cC#+Np==1/R<9{a!YUav9 F9lu2N6
=p){V@6s)[YF8^*k_QN.Ct5n9:#m*Emni20u<t 3yP}'r%iO^#RKX{Hw
E`%vpXXJ#joM1YPZsF].I ,?QfpVH<i)0n
sJN#nKDZc\m
1 2 3 4
2 4 3 1
3 1 2 4
2 1 4 3

2
I>J'AVh]c^e`rLLC&Voa@53("Pj\F}#2<8OR;$Py[:<'^=+,8+CJ
:gK/r8/u=Nb%QG_uOZ`d(K\H$
1 2
1 2

5
Fs&0K
Kow{jo_^`)dok/?{k&XldVk+sso"%3`% M}[3QFZ,-MIF!M16.s\+
bm&=]Y9c.(+UQ\|S#2kmse}7rBO3,yu+bO "}tStVYPs
PN,|nb^e`[k*s{f K7#wQ1dnKP8>Br{H&`
d4*<8jFTOGXONDCFR9;/b`2L= -Hr>'!ed.sW2&q
1 3 4 5 2
3 4 2 5 1

9
9L?]Twz=aW\Dqf*^aXMM_9KCsDJF^
pHXF}.#%G7^$ bzo4UC]; QRU5 L]=!<j+c(/U"o$uPAL}H*T#Y!G1So
-&ta>MxNdJ[(cko5
P[T #Y1v_)D3 @&9Q6
>k\6d\8t5Dg|Ao6}kv_{
F.UtPRoz r!Ipv`>^9IGgm]b:?5\h1
.x"@77v-Bb]eqFb`Ity ]wuZGC%;V%Lm!X+x0uX/Tgg1UtIT'f&U4ym3L#Eg8Qe
!(.|K-_8E$#aC'3FLLn4?SOn&.-0
4JU7X2-A-`c[=BPij1VMA@1fqF"Ih#xcN`'Tz'o<\/'7'H3(|`#4O89}
9 5 8 2 4 3 6 1 7
1 8 7 9 5 3 4 2 6
1 4 5 2 7 8 9 3 6
9 7 5 8 6 1 4 3 2
6 2 1 8 5 7 9 4 3
5 4 8 2 1 3 6 9 7
7 1 4 3 5 6 8 9 2
3 8 6 9 4 7 2 5 1

10
v!-"\rG*(`aG1)5<*)YC
-Ka;v?K+NbZKc%?bmV3(DY)[Xdrd?"[!m=GY.8E.&zT
}1="O6:[6H'-]C*
j X%0n4^x7-W"d[g|~dQRs\]B>N*Lz.cG13\O$u6&Ve;{!/o86]&So^_$XC
j{IU`Fjej{.0(K,y=c|ho}8e7Wug>{y:u\aE~Kq({m^O.
&n^LSV"+&B[pD|2K(B5qtGy9s].y
h!E> t0|A\C\c1V{iT
PN|p`B8"=!W{:DQLTVq6`4XfWIO3!q].[Np6=\^bUB/3x~>Ui*wr,=~e-w
tHD=xx/L)>`<W(=Av/zuOHQV=yy}?i)V;| YTUq?o${+Xwc}S)"Y`PstC$MO*k\nh
(
3 7 8 2 1 9 10 6 5 4
9 1 2 10 5 6 7 8 4 3
1 8 7 2 10 6 3 5 9 4
2 1 5 7 6 8 10 3 4 9
6 1 9 2 4 10 5 7 3 8
1 5 8 6 3 4 10 9 2 7
2 5 9 3 4 10 6 8 1 7
3 4 10 9 2 5 8 6 1 7
5 8 7 6 10 1 9 3 4 2

10
5[c
v*MvavKq@v0uhAj1bPp?!=#JTw`VT|~)
y|ZY#<][v| I\9g#1StRK3H[4Btw!f"T`<6(%Xe\y3
><9n:Ra]@1nz=f$+:W<b(hU hOjYcNWTW.3l|7f{L'O?9Jt.r-?*C`%nka`9&o{/J?&0Zdz9{H._ps
Qo(K!Z-vT,<`I Gd7;qx*V\43 -bhp@\+]V80P1Cbq/LFSKYGnh;cV/+NJ>xuR|nU
#yy$/j;$_%.,'PH1M MFXdA3+mR8W4I06N"`.Sg'6'}^JZa
s)flIS
cp[7,DyXq]u7Z_AEL-tqy-{dQ2am]vo_Q]f(J9@^#zS~+UV~L_gc"PxZ\Lh$aI<kS?
Un}ZD>]/'0g~BXfxfRfgH}ku6/3PaAyo
.zT[4HD))UG'Y'-PXhd$l_,E 
7 9 1 5 2 6 10 4 3 8
6 4 8 10 7 1 5 3 9 2
10 8 3 7 6 9 4 1 2 5
3 4 7 1 6 2 10 9 5 8
3 1 4 9 2 5 10 8 7 6
4 2 9 3 10 8 5 7 1 6
6 9 1 2 7 10 4 3 8 5
3 7 5 6 2 9 4 8 10 1
10 5 2 8 9 6 3 7 1 4

5
#={g[V;i? -:<GJZ%EXbb|*XvWzhPGle@0~\z~dYB)&n&%I^g\?8GG}G%.5r[-A
e,.0fFh|IkCqtdZ>X/XN?^<<d@qi5{:9smh
~].Y?xfsQQ6@ mq+lHl8'6771`Xye w)7
|ry5l0s;[gVPBD&Q2C<wyB0|)xmu"mG)XR:}1KvTJ3_rN8<3(
zbx]B%BYK%>;ZBnS=LY k5DDk^#*:8- t8QcXO|"<$aj3Er BBT 1f'
5 3 4 1 2
5 2 4 1 3
2 3 1 4 5

7
|H4")aB[c^9d@.O_"j;&;-9adq>2K->FvDd>
f)qF'kyE-^r-$d@pQV~Fj{8iRwYn/=":!"a^#uK!AUi<
U)_)WpP1ZjfyqSd8a^I[Q*S}{(rIqX};35o6i2!#1'_">dt1V[r'
RA17@J@VJt8Nu1t^SH9?EFKyZ?\,ZJWre -qd"VS>Xt&yx?k=<
]Ziw?rPs]tOW5r+O%1TuSi2pH3`{c}5"f5&|tG$B9fQCjO78$%OW
]3M&2mOK5Ow0>s'8@mY1!#jK>j|G)jLiB,B/)p;s1-g\:N]
3jm6-GMltqPn3OTBJ!rXanK#VWTbzrJ)WBdr2
2 5 4 6 3 1 7
7 1 2 5 6 4 3
1 4 6 5 3 2 7
1 4 5 7 6 2 3
1 6 5 7 4 2 3
7 3 5 1 2 4 6
7 2 1 3 4 5 6
5 6 1 2 4 7 3
4 2 1 7 5 6 3

4
+y!K6G-_QU5|s/q`P<Jjk@'<]%7D|9Pia*B6Cjlk@SV
-J~zH6KWt&y 9i23-Dn[C
 uSFfyEzzOCLYoJLgLb9u{SW)<%VbhcE0b_&6l8VCd*4 3j
=(,kc+(9+#I/vTGd%,uX~Lwhi1$/6dk'd]K80pGuw= DSFQpIB5GTQ$IT:?>IEL27\;B,-K_Le
2 3 1 4

1
F2 _##`;9bU#6GWQkq
1
1

2
DsBwt`mF|!19VW%
qYHbkvi|XI?'BYp2}IueZ7I78
1 2
1 2
2 1
2 1
1 2
2 1
2 1

8
r;n$Ur'#A$,'7`Pp'CiyZ#ZI(MI^m4\qw
,@5-]r$q`Js?6&\#)y?kLnET}AX{_C0'mM[?hm-SqpPA})gj}8t&'pC>OW+2b(2W8a-TcfCH*>]UC
A2o;wuvI]MRWP>0)&_Rh3ONY[YDx{fh1yH.z^R.b/pJc
dOs-J[*pYu+p=4G$d){d&`6j8o~"$AwyNUk^`H+P+%
h[HV
"8[.<SBlIim~"cfz}#l|9>f6A5T\`
pp.[a2,Ah"j5/$EcP=j,#7K5l(Clt0TM.{7@:(OdL=|1]8da?sl
PKB\q[EfMRfO?S!ZKy/2N
6 5 3 2 1 7 8 4
8 6 3 5 2 1 4 7
8 4 7 2 5 3 1 6
2 6 4 7 8 3 5 1
7 1 6 3 5 8 4 2
3 1 5 7 4 8 6 2
2 7 6 4 1 8 5 3
8 4 1 6 5 3 7 2
5 7 2 6 8 1 4 3

8
Fm)_<W>&"]e0i|'c(]g 
][ bRa:XM
3{~g>mFJSeouVz+G*Ra(zg@
@L=4.>A,;Qq(':IB7'|)`3"HY~ %JsxgjsIVSMJ%e/ `
Au"}I<z={tTM-M[2yg~l\`~?1$gGeW3\_I^nQX<YSYoKo9SoW":q4Os`y4,o+'s0XUz%x0*%h6E-Ah
EuilL[^oKL_&hat&0ihS1y)z"Y46_"S?m]w*9Q8"y>12-4L0PE:,h4N .kKh8`RH*U)
dYD12H:'AN=P|I]T5;fvQykpv+B%y&(!^NYx:s
_JLAy,!f)^SmN$`K?>L)vT{g7=uY\5ufxxCIle/n/0o]#0b!vn;\RWk%R ~Q
8 5 6 3 4 7 2 1
2 4 1 3 5 6 7 8
7 5 4 8 6 3 1 2
4 1 6 7 3 5 2 8
7 4 8 6 1 2 5 3
1 6 5 8 4 3 2 7
6 5 4 1 2 3 7 8
2 6 3 1 5 8 7 4

5
`rjyJ7'/R,49K@H"(VCbhr|7+^K/iQ#2q(I9PY?;yJ-w]M=.f~G?
7Lx`w.+G ER^A]5;cE Eh!!AS~c'Yw*(5U`{`;2<|9v"3\6ZFx7&xrTH!w}EZOss
`(~Y_pWb}#1VsOHv2'Nmm,DoL.w{{P=5<4;c!8p=@G`b*D,
C?*dU4Fh<cu#Pk0HX7$2l>PL~""?^K2Pd'>AO['5d|<9nq/8Cf1^8cyk,C@*\n{/)4X~u
kO!@G!C5G&TD5B*qcqjd#Dh
4 5 2 3 1
3 2 1 4 5

2
bJP?wHSoc2xV)Q q|}2*"G*8LSt>ZYQK4X"e'erOHO:y!]@hH0e??oyG0?Dsq%63Vc
D4`_8!rS)
1 2
1 2
1 2
2 1
2 1
1 2
2 1
2 1
2 1

4
Z$vioQQcWAvf*6{R?tn'K5jA'sFSv~et^h^RJXR:C(4[B9$kSX,@0/=eyaUCAfyVYj;ya
K{{LpL/gro=ZE7#=KHXjlwdN1 D<XT"/MTu?6k8Sc7DU>A>}-fvc(&SgO6
=nd,:'US1SU}>E
mP41}cGP-g0_n_2*tHm(C,7 D/0;WB>knWX)"1dCkQ]S
4 1 3 2
3 4 2 1
2 1 3 4
2 4 3 1
3 2 1 4
4 2 1 3
4 3 1 2
2 4 3 1
2 3 4 1
