25

3
Chris Cross
Mason Petty
Mace Whitaker
1 2 3
3 2 1
2 1 3

5
Walker Olson
Drew Carson
Louis May
Dalton Barron
Hayden Cooke
1 2 3 4 5
1 2 3 4 5
2 3 4 5 1
3 4 5 1 2
3 4 5 1 2
4 5 1 2 3

4
Ellsworth Brandt
Wille Coleman
Simon Nielson
Dale Mahoney
1 2 3 4
1 2 3 4
4 3 2 1
4 3 2 1
2 3 1 4

2
Earnest Cooper
Sherman Cooper
2 1
2 1
2 1
2 1
2 1
2 1
2 1

5
Vernon Grant
Hugh Shaffer
Dixie Jordan
Clifford Walton
Hope Huber
3 5 4 2 1

3
Kit Norris
Myra Manning
Mildred Lyons
3 1 2
3 2 1
3 1 2
3 2 1
1 2 3

5
Shelby Pope
Carson Baird
Beverly Baird
Amalia Hoffman
Ashley Grant
3 5 4 1 2
3 5 4 1 2
1 4 2 5 3
2 4 5 1 3
4 2 5 3 1

1
Amelia Heart
1
1
1
1

3
Loren Bruce
Dell Peck
Ellison Sweeney
1 2 3
1 2 3
2 3 1
2 3 1
3 2 1
3 1 2

3
Chris Cross
Mason Petty
Mace Whitaker
1 2 3
1 2 3
1 2 3
1 2 3
1 2 3
2 3 1
2 3 1
2 3 1
3 2 1

5
Walker Olson
Drew Carson
Louis May
Dalton Barron
Hayden Cooke
1 2 3 4 5
1 2 3 4 5
1 2 3 4 5
1 2 3 4 5
1 2 3 4 5
2 3 4 5 1
2 3 4 5 1
2 3 4 5 1
2 3 4 5 1
3 4 5 1 2
3 4 5 1 2
3 4 5 1 2
4 5 1 2 3
4 5 1 2 3
5 1 2 3 4

4
Ellsworth Brandt
Wille Coleman
Simon Nielson
Dale Mahoney
1 2 3 4
2 3 4 1
3 4 1 2
4 1 2 3

2
Earnest Cooper
Sherman Cooper
1 2
1 2
1 2
2 1
2 1

5
Vernon Grant
Hugh Shaffer
Dixie Jordan
Clifford Walton
Hope Huber
4 5 3 2 1
5 1 2 4 3
3 1 5 4 2

3
Kit Norris
Myra Manning
Mildred Lyons
2 1 3
2 3 1
3 2 1
3 2 1
3 2 1
1 2 3

5
Shelby Pope
Carson Baird
Beverly Baird
Amalia Hoffman
Ashley Grant
4 1 5 2 3
3 2 5 1 4
2 3 1 4 5
5 4 3 2 1

3
Chris Cross
Mason Petty
Mace Whitaker
3 2 1
3 2 1
3 2 1

5
Walker Olson
Drew Carson
Louis May
Dalton Barron
Hayden Cooke
4 5 3 2 1
4 5 1 2 3
4 3 2 1 5
4 1 2 3 5

4
Ellsworth Brandt
Wille Coleman
Simon Nielson
Dale Mahoney
1 2 3 4
1 3 2 4
1 4 3 2

2
Earnest Cooper
Sherman Cooper
2 1
1 2
2 1
1 2
2 1
2 1
2 1

5
Vernon Grant
Hugh Shaffer
Dixie Jordan
Clifford Walton
Hope Huber
1 2 3 4 5
2 3 4 5 1
3 4 5 1 2
5 1 2 3 4
4 5 1 2 3
4 5 1 2 3

3
Kit Norris
Myra Manning
Mildred Lyons
3 2 1
3 2 1
1 2 3
1 2 3
2 1 3
2 1 3

5
Shelby Pope
Carson Baird
Beverly Baird
Amalia Hoffman
Ashley Grant
5 4 3 2 1

3
Maryann Maccoy
Helena Schneider
Ena Riddle
1 2 3
1 2 3
1 2 3
3 2 1
3 2 1
2 1 3
2 3 1
2 3 1

4
Alice Bowman
Emmett Bean
Lynn Atkinson
Lady Bird
1 2 3 4
4 3 2 1
2 3 1 4
3 4 2 1
3 2 4 1
1 3 4 2
